{
  "usuarios": [
    {
      "nome": "Larissa Palombo",
      "cpf": "22222222222222",
      "email": "larissampalombo@gmail.com",
      "endereco": {
        "cep": "44030-223",
        "rua": "55555",
        "numero": "55",
        "bairro": "uhgugu",
        "cidade": "Itajuba"
      },
      "id": 1
    }
  ]
}